Uber & Lyft price quotes
…
## # A tibble: 4 x 2
##   Day_time mean_price
##   <chr>         <dbl>
## 1 Evening        17.1
## 2 Midday         16.6
## 3 Morning        16.4
## 4 Night          16.2

Df<- select(cab_rides3, 'Day_time', 'product_type', 'price')
(Price_time_product <- Df %>%
  group_by(product_type, Day_time) %>%
   dplyr::summarize(mean_price = mean(price, na.rm = TRUE)))

## # A tibble: 24 x 3
## # Groups:   product_type [6]
##    product_type Day_time mean_price
##    <chr>        <chr>         <dbl>
##  1 Luxury       Evening       19.8 
##  2 Luxury       Midday        19.4 
##  3 Luxury       Morning       19.2 
##  4 Luxury       Night         18.6 
##  5 Luxury XL    Evening       31.9 
##  6 Luxury XL    Midday        31.4 
##  7 Luxury XL    Morning       31.0 
##  8 Luxury XL    Night         30.9 
##  9 Regular      Evening       10.1 
## 10 Regular      Midday         9.71
## # ... with 14 more rows
…
